…
```r
deserts
```

```
## # A tibble: 34,786 × 13
##    record…¹ month   day  year plot_id speci…² sex   hindf…³ weight genus species
##       <dbl> <dbl> <dbl> <dbl>   <dbl> <chr>   <chr>   <dbl>  <dbl> <chr> <chr>  
##  1        1     7    16  1977       2 NL      M          32     NA Neot… albigu…
##  2        2     7    16  1977       3 NL      M          33     NA Neot… albigu…
##  3        3     7    16  1977       2 DM      F          37     NA Dipo… merria…
##  4        4     7    16  1977       7 DM      M          36     NA Dipo… merria…
##  5        5     7    16  1977       3 DM      M          35     NA Dipo… merria…
##  6        6     7    16  1977       1 PF      M          14     NA Pero… flavus 
##  7        7     7    16  1977       2 PE      F          NA     NA Pero… eremic…
##  8        8     7    16  1977       1 DM      M          37     NA Dipo… merria…
##  9        9     7    16  1977       1 DM      F          34     NA Dipo… merria…
## 10       10     7    16  1977       6 PF      F          20     NA Pero… flavus 
## # … with 34,776 more rows, 2 more variables: taxa <chr>, plot_type <chr>, and
## #   abbreviated variable names ¹​record_id, ²​species_id, ³​hindfoot_length
```
…
```
## [1] 34786
```

For genera:

```r
deserts %>% 
  count(genus, sort = T)
```

```
## # A tibble: 26 × 2
##    genus                n
##    <chr>            <int>
##  1 Dipodomys        16167
##  2 Chaetodipus       6029
##  3 Onychomys         3267
##  4 Reithrodontomys   2694
##  5 Peromyscus        2234
##  6 Perognathus       1629
##  7 Neotoma           1252
##  8 Ammospermophilus   437
##  9 Amphispiza         303
## 10 Spermophilus       249
## # … with 16 more rows
```

For species:

```r
deserts %>% 
  count(species, sort = T)
```

```
## # A tibble: 40 × 2
##    species          n
##    <chr>        <int>
##  1 merriami     10596
##  2 penicillatus  3123
##  3 ordii         3027
##  4 baileyi       2891
##  5 megalotis     2609
##  6 spectabilis   2504
##  7 torridus      2249
##  8 flavus        1597
##  9 eremicus      1299
## 10 albigula      1252
## # … with 30 more rows
```
…
```r
deserts %>% 
  filter(species == "albigula" | species == "spectabilis") %>% 
  filter(weight !="NA", hindfoot_length!="NA") %>% 
  mutate(ratio_weight_hindfoot = weight/hindfoot_length)
```

```
## # A tibble: 3,072 × 14
##    record…¹ month   day  year plot_id speci…² sex   hindf…³ weight genus species
##       <dbl> <dbl> <dbl> <dbl>   <dbl> <chr>   <chr>   <dbl>  <dbl> <chr> <chr>  
##  1      357    11    12  1977       9 DS      F          50    117 Dipo… specta…
##  2      362    11    12  1977       1 DS      F          51    121 Dipo… specta…
##  3      367    11    12  1977      20 DS      M          51    115 Dipo… specta…
##  4      377    11    12  1977       9 DS      F          48    120 Dipo… specta…
##  5      381    11    13  1977      17 DS      F          48    118 Dipo… specta…
##  6      383    11    13  1977      11 DS      F          52    126 Dipo… specta…
##  7      385    11    13  1977      17 DS      M          50    132 Dipo… specta…
##  8      392    11    13  1977      11 DS      F          53    122 Dipo… specta…
##  9      394    11    13  1977       4 DS      F          48    107 Dipo… specta…
## 10      398    11    13  1977       4 DS      F          50    115 Dipo… specta…
## # … with 3,062 more rows, 3 more variables: taxa <chr>, plot_type <chr>,
## #   ratio_weight_hindfoot <dbl>, and abbreviated variable names ¹​record_id,
## #   ²​species_id, ³​hindfoot_length
```
…
10. Make one plot of your choice! Make sure to include at least two of the aesthetics options you have learned.

How bave the Weight to hindfoot length ratio of the largest average species changed throughout the years?


```r
deserts %>% 
  filter(species == "albigula") %>% 
  filter(weight !="NA", hindfoot_length!="NA") %>% 
  mutate(ratio_weight_hindfoot = weight/hindfoot_length)
```

```
## # A tibble: 1,046 × 14
##    record…¹ month   day  year plot_id speci…² sex   hindf…³ weight genus species
##       <dbl> <dbl> <dbl> <dbl>   <dbl> <chr>   <chr>   <dbl>  <dbl> <chr> <chr>  
##  1      646     2    20  1978      18 NL      M          32    228 Neot… albigu…
##  2      655     3    11  1978       3 NL      M          32    232 Neot… albigu…
##  3      845     5     6  1978       2 NL      M          32    204 Neot… albigu…
##  4      848     5     6  1978      22 NL      M          32    212 Neot… albigu…
##  5      869     5    17  1978      20 NL      F          33    174 Neot… albigu…
##  6      875     5    17  1978       5 NL      F          33    212 Neot… albigu…
##  7      971     6     8  1978      17 NL      F          32    135 Neot… albigu…
##  8     1029     6     9  1978      18 NL      M          32    232 Neot… albigu…
##  9     1081     7     8  1978      14 NL      M          33    113 Neot… albigu…
## 10     1083     7     8  1978       3 NL      F          34    115 Neot… albigu…
## # … with 1,036 more rows, 3 more variables: taxa <chr>, plot_type <chr>,
## #   ratio_weight_hindfoot <dbl>, and abbreviated variable names ¹​record_id,
## #   ²​species_id, ³​hindfoot_length
```
…
