…
```
## [1] TRUE
```

```r
fisheries %>% 
  group_by(Country) %>% 
  summarise(n_fishes = n_distinct(`Common name`))
```

```
## # A tibble: 204 × 2
##    Country               n_fishes
##    <chr>                    <int>
##  1 "Saint Barth\xe9lemy"        1
##  2 "R\xe9union"                37
##  3 "C\xf4te d'Ivoire"          67
##  4 "Cura\xe7ao"                 9
##  5 "Albania"                   67
##  6 "Algeria"                   59
##  7 "American Samoa"            32
##  8 "Angola"                    73
##  9 "Anguilla"                   3
## 10 "Antigua and Barbuda"       22
## # … with 194 more rows
```
…
fisheries_tidy$catch <- as.numeric(fisheries_tidy$catch)
```

3. How many countries are represented in the data? Provide a count and list their names.

```r
fisheries_tidy %>% 
  count(country)
```

```
## # A tibble: 203 × 2
##    country                 n
##    <fct>               <int>
##  1 Albania               934
##  2 Algeria              1561
##  3 American Samoa        556
##  4 Angola               2119
##  5 Anguilla              129
##  6 Antigua and Barbuda   356
##  7 Argentina            3403
##  8 Aruba                 172
##  9 Australia            8183
## 10 Bahamas               423
## # … with 193 more rows
```

4. Refocus the data only to include country, isscaap_taxonomic_group, asfis_species_name, asfis_species_number, year, catch.

```r
new_fisheries_tidy <- fisheries_tidy %>% 
  select(country, isscaap_taxonomic_group, asfis_species_name, asfis_species_number, year, catch)
new_fisheries_tidy
```

```
## # A tibble: 376,771 × 6
##    country isscaap_taxonomic_group asfis_species_name asfis_specie…¹  year catch
##    <fct>   <chr>                   <chr>              <fct>          <dbl> <dbl>
##  1 Albania Sharks, rays, chimaeras Squatinidae        10903XXXXX      1995    NA
##  2 Albania Sharks, rays, chimaeras Squatinidae        10903XXXXX      1996    53
##  3 Albania Sharks, rays, chimaeras Squatinidae        10903XXXXX      1997    20
##  4 Albania Sharks, rays, chimaeras Squatinidae        10903XXXXX      1998    31
##  5 Albania Sharks, rays, chimaeras Squatinidae        10903XXXXX      1999    30
##  6 Albania Sharks, rays, chimaeras Squatinidae        10903XXXXX      2000    30
##  7 Albania Sharks, rays, chimaeras Squatinidae        10903XXXXX      2001    16
##  8 Albania Sharks, rays, chimaeras Squatinidae        10903XXXXX      2002    79
##  9 Albania Sharks, rays, chimaeras Squatinidae        10903XXXXX      2003     1
## 10 Albania Sharks, rays, chimaeras Squatinidae        10903XXXXX      2004     4
## # … with 376,761 more rows, and abbreviated variable name ¹​asfis_species_number
```
…
10. Use the data to do at least one analysis of your choice.


```r
fisheries_tidy %>% 
  filter(between(year, 2008, 2012)) %>% 
  group_by(country) %>% 
  summarise(avg_catch = mean(catch, na.rm = T)) %>% 
  arrange(-avg_catch)
```

```
## # A tibble: 199 × 2
##    country                  avg_catch
##    <fct>                        <dbl>
##  1 Myanmar                     1206. 
##  2 Viet Nam                     519. 
##  3 China                        191. 
##  4 Peru                         187. 
##  5 Bangladesh                   118. 
##  6 Norway                       104. 
##  7 Korea, Dem. People's Rep      80.3
##  8 French Southern Terr          80  
##  9 Russian Federation            78.9
## 10 Papua New Guinea              74.9
## # … with 189 more rows
```
…
