…
```r
homerange
```

```
## # A tibble: 569 × 24
##    taxon  commo…¹ class order family genus species prima…² N     mean.…³ log10…⁴
##    <chr>  <chr>   <chr> <chr> <chr>  <chr> <chr>   <chr>   <chr>   <dbl>   <dbl>
##  1 lake … americ… acti… angu… angui… angu… rostra… teleme… 16       887    2.95 
##  2 river… blackt… acti… cypr… catos… moxo… poecil… mark-r… <NA>     562    2.75 
##  3 river… centra… acti… cypr… cypri… camp… anomal… mark-r… 20        34    1.53 
##  4 river… rosysi… acti… cypr… cypri… clin… fundul… mark-r… 26         4    0.602
##  5 river… longno… acti… cypr… cypri… rhin… catara… mark-r… 17         4    0.602
##  6 river… muskel… acti… esoc… esoci… esox  masqui… teleme… 5       3525    3.55 
##  7 marin… pollack acti… gadi… gadid… poll… pollac… teleme… 2        737.   2.87 
##  8 marin… saithe  acti… gadi… gadid… poll… virens  teleme… 2        449.   2.65 
##  9 marin… lined … acti… perc… acant… acan… lineat… direct… <NA>     109.   2.04 
## 10 marin… orange… acti… perc… acant… naso  litura… teleme… 8        772.   2.89 
## # … with 559 more rows, 13 more variables: alternative.mass.reference <chr>,
## #   mean.hra.m2 <dbl>, log10.hra <dbl>, hra.reference <chr>, realm <chr>,
## #   thermoregulation <chr>, locomotion <chr>, trophic.guild <chr>,
## #   dimension <dbl>, preymass <dbl>, log10.preymass <dbl>, PPMR <dbl>,
## #   prey.size.reference <chr>, and abbreviated variable names ¹​common.name,
## #   ²​primarymethod, ³​mean.mass.g, ⁴​log10.mass
```
…
**4. What taxa are represented in the `homerange` data frame? Make a new data frame `taxa` that is restricted to taxon, common name, class, order, family, genus, species.**  


```r
taxa <- select(homerange, "taxon", "common.name", "class", "order", "family", "genus", "species")
taxa
```

```
## # A tibble: 569 × 7
##    taxon         common.name             class        order family genus species
##    <fct>         <chr>                   <chr>        <fct> <chr>  <chr> <chr>  
##  1 lake fishes   american eel            actinoptery… angu… angui… angu… rostra…
##  2 river fishes  blacktail redhorse      actinoptery… cypr… catos… moxo… poecil…
##  3 river fishes  central stoneroller     actinoptery… cypr… cypri… camp… anomal…
##  4 river fishes  rosyside dace           actinoptery… cypr… cypri… clin… fundul…
##  5 river fishes  longnose dace           actinoptery… cypr… cypri… rhin… catara…
##  6 river fishes  muskellunge             actinoptery… esoc… esoci… esox  masqui…
##  7 marine fishes pollack                 actinoptery… gadi… gadid… poll… pollac…
##  8 marine fishes saithe                  actinoptery… gadi… gadid… poll… virens 
##  9 marine fishes lined surgeonfish       actinoptery… perc… acant… acan… lineat…
## 10 marine fishes orangespine unicornfish actinoptery… perc… acant… naso  litura…
## # … with 559 more rows
```
…
**7. Make two new data frames, one which is restricted to carnivores and another that is restricted to herbivores.**  

For carnivores:

```r
carnivores <- filter(homerange, trophic.guild == "carnivore")
carnivores
```

```
## # A tibble: 342 × 24
##    taxon  commo…¹ class order family genus species prima…² N     mean.…³ log10…⁴
##    <fct>  <chr>   <chr> <fct> <chr>  <chr> <chr>   <chr>   <chr>   <dbl>   <dbl>
##  1 lake … americ… acti… angu… angui… angu… rostra… teleme… 16       887    2.95 
##  2 river… blackt… acti… cypr… catos… moxo… poecil… mark-r… <NA>     562    2.75 
##  3 river… centra… acti… cypr… cypri… camp… anomal… mark-r… 20        34    1.53 
##  4 river… rosysi… acti… cypr… cypri… clin… fundul… mark-r… 26         4    0.602
##  5 river… longno… acti… cypr… cypri… rhin… catara… mark-r… 17         4    0.602
##  6 river… muskel… acti… esoc… esoci… esox  masqui… teleme… 5       3525    3.55 
##  7 marin… pollack acti… gadi… gadid… poll… pollac… teleme… 2        737.   2.87 
##  8 marin… saithe  acti… gadi… gadid… poll… virens  teleme… 2        449.   2.65 
##  9 marin… giant … acti… perc… caran… cara… ignobi… teleme… 4        726.   2.86 
## 10 lake … rock b… acti… perc… centr… ambl… rupest… mark-r… 16       196    2.29 
## # … with 332 more rows, 13 more variables: alternative.mass.reference <chr>,
## #   mean.hra.m2 <dbl>, log10.hra <dbl>, hra.reference <chr>, realm <chr>,
## #   thermoregulation <chr>, locomotion <chr>, trophic.guild <chr>,
## #   dimension <dbl>, preymass <dbl>, log10.preymass <dbl>, PPMR <dbl>,
## #   prey.size.reference <chr>, and abbreviated variable names ¹​common.name,
## #   ²​primarymethod, ³​mean.mass.g, ⁴​log10.mass
```

For Herbivores:

```r
herbivores <- filter(homerange, trophic.guild == "herbivore")
herbivores
```

```
## # A tibble: 227 × 24
##    taxon  commo…¹ class order family genus species prima…² N     mean.…³ log10…⁴
##    <fct>  <chr>   <chr> <fct> <chr>  <chr> <chr>   <chr>   <chr>   <dbl>   <dbl>
##  1 marin… lined … acti… perc… acant… acan… lineat… direct… <NA>   109.     2.04 
##  2 marin… orange… acti… perc… acant… naso  litura… teleme… 8      772.     2.89 
##  3 marin… bluesp… acti… perc… acant… naso  unicor… teleme… 7      152.     2.18 
##  4 marin… redlip… acti… perc… blenn… ophi… atlant… direct… 20       6.2    0.792
##  5 marin… bermud… acti… perc… kypho… kyph… sectat… teleme… 11    1087.     3.04 
##  6 marin… cherub… acti… perc… pomac… cent… argi    direct… <NA>     2.5    0.398
##  7 marin… damsel… acti… perc… pomac… chro… chromis direct… <NA>    28.4    1.45 
##  8 marin… twinsp… acti… perc… pomac… chry… biocel… direct… 18       9.19   0.963
##  9 marin… wards … acti… perc… pomac… poma… wardi   direct… <NA>    10.5    1.02 
## 10 marin… austra… acti… perc… pomac… steg… apical… direct… <NA>    45.3    1.66 
## # … with 217 more rows, 13 more variables: alternative.mass.reference <chr>,
## #   mean.hra.m2 <dbl>, log10.hra <dbl>, hra.reference <chr>, realm <chr>,
## #   thermoregulation <chr>, locomotion <chr>, trophic.guild <chr>,
## #   dimension <dbl>, preymass <dbl>, log10.preymass <dbl>, PPMR <dbl>,
## #   prey.size.reference <chr>, and abbreviated variable names ¹​common.name,
## #   ²​primarymethod, ³​mean.mass.g, ⁴​log10.mass
```
…
**9. Make a new dataframe `deer` that is limited to the mean mass, log10 mass, family, genus, and species of deer in the database. The family for deer is cervidae. Arrange the data in descending order by log10 mass. Which is the largest deer? What is its common name?**  


```r
not_just_deer <- select(homerange, "family","genus","species","mean.mass.g", "log10.mass")
not_just_deer
```

```
## # A tibble: 569 × 5
##    family       genus       species     mean.mass.g log10.mass
##    <chr>        <chr>       <chr>             <dbl>      <dbl>
##  1 anguillidae  anguilla    rostrata           887       2.95 
##  2 catostomidae moxostoma   poecilura          562       2.75 
##  3 cyprinidae   campostoma  anomalum            34       1.53 
##  4 cyprinidae   clinostomus funduloides          4       0.602
##  5 cyprinidae   rhinichthys cataractae           4       0.602
##  6 esocidae     esox        masquinongy       3525       3.55 
##  7 gadidae      pollachius  pollachius         737.      2.87 
##  8 gadidae      pollachius  virens             449.      2.65 
##  9 acanthuridae acanthurus  lineatus           109.      2.04 
## 10 acanthuridae naso        lituratus          772.      2.89 
## # … with 559 more rows
```
…
The largest deer species is the Alces. It's common name is 'Moose.'

**10. As measured by the data, which snake species has the smallest homerange? Show all of your work, please. Look this species up online and tell me about it!** **Snake is found in taxon column**    


```r
not_just_snakes <- select(homerange, "taxon","family","genus","species","mean.hra.m2", "log10.hra")
not_just_snakes
```

```
## # A tibble: 569 × 6
##    taxon         family       genus       species     mean.hra.m2 log10.hra
##    <fct>         <chr>        <chr>       <chr>             <dbl>     <dbl>
##  1 lake fishes   anguillidae  anguilla    rostrata       282750        5.45
##  2 river fishes  catostomidae moxostoma   poecilura         282.       2.45
##  3 river fishes  cyprinidae   campostoma  anomalum          116.       2.06
##  4 river fishes  cyprinidae   clinostomus funduloides       126.       2.10
##  5 river fishes  cyprinidae   rhinichthys cataractae         87.1      1.94
##  6 river fishes  esocidae     esox        masquinongy     39344.       4.59
##  7 marine fishes gadidae      pollachius  pollachius       9056.       3.96
##  8 marine fishes gadidae      pollachius  virens          44516.       4.65
##  9 marine fishes acanthuridae acanthurus  lineatus           11.1      1.05
## 10 marine fishes acanthuridae naso        lituratus       32093.       4.51
## # … with 559 more rows
```

```r
snakes <- filter(not_just_snakes, taxon == "snakes")
snakes
```

```
## # A tibble: 41 × 6
##    taxon  family     genus      species                  mean.hra.m2 log10.hra
##    <fct>  <chr>      <chr>      <chr>                          <dbl>     <dbl>
##  1 snakes colubridae carphopis  vermis                           700      2.85
##  2 snakes colubridae carphopis  viridis                          253      2.40
##  3 snakes colubridae coluber    constrictor                   151000      5.18
##  4 snakes colubridae coluber    constrictor flaviventris      114500      5.06
##  5 snakes colubridae diadophis  punctatus                       6476      3.81
##  6 snakes colubridae drymarchon couperi                      1853000      6.27
##  7 snakes colubridae elaphe     guttata emoryi                150600      5.18
##  8 snakes colubridae elaphe     obsoleta                       46000      4.66
##  9 snakes colubridae heterodon  platirhinos                   516375      5.71
## 10 snakes colubridae hierophis  viridiflavus                  110900      5.04
## # … with 31 more rows
```


```r
arrange(snakes, -desc(mean.hra.m2))
```

```
## # A tibble: 41 × 6
##    taxon  family     genus       species      mean.hra.m2 log10.hra
##    <fct>  <chr>      <chr>       <chr>              <dbl>     <dbl>
##  1 snakes viperidae  bitis       schneideri          200       2.30
##  2 snakes colubridae carphopis   viridis             253       2.40
##  3 snakes colubridae thamnophis  butleri             600       2.78
##  4 snakes colubridae carphopis   vermis              700       2.85
##  5 snakes viperidae  vipera      latastei           2400       3.38
##  6 snakes viperidae  gloydius    shedaoensis        2614.      3.42
##  7 snakes colubridae diadophis   punctatus          6476       3.81
##  8 snakes viperidae  agkistrodon piscivorous       10655       4.03
##  9 snakes colubridae oocatochus  rufodorsatus      15400       4.19
## 10 snakes colubridae pituophis   catenifer         17400       4.24
## # … with 31 more rows
```
…
