…
```r
lower_48_wolves <- wolves %>% 
  filter(lat >= 25.89 & lat <= 48.50) %>% 
  filter(long >= -123.84 & long <= -68.42)
lower_48_wolves
```

```
## # A tibble: 1,169 × 23
##    pop    year age.cat sex   color   lat  long habitat human pop.density pack.…¹
##    <chr> <dbl> <chr>   <chr> <chr> <dbl> <dbl>   <dbl> <dbl>       <dbl>   <dbl>
##  1 GTNP   2012 P       M     G      43.8 -111.  10375. 3924.        34.0     8.1
##  2 GTNP   2012 P       F     G      43.8 -111.  10375. 3924.        34.0     8.1
##  3 GTNP   2012 P       F     G      43.8 -111.  10375. 3924.        34.0     8.1
##  4 GTNP   2012 P       M     B      43.8 -111.  10375. 3924.        34.0     8.1
##  5 GTNP   2013 A       F     G      43.8 -111.  10375. 3924.        34.0     8.1
##  6 GTNP   2013 A       M     G      43.8 -111.  10375. 3924.        34.0     8.1
##  7 GTNP   2013 P       M     G      43.8 -111.  10375. 3924.        34.0     8.1
##  8 GTNP   2013 P       M     G      43.8 -111.  10375. 3924.        34.0     8.1
##  9 GTNP   2013 P       M     G      43.8 -111.  10375. 3924.        34.0     8.1
## 10 GTNP   2013 P       F     G      43.8 -111.  10375. 3924.        34.0     8.1
## # … with 1,159 more rows, 12 more variables: standard.habitat <dbl>,
## #   standard.human <dbl>, standard.pop <dbl>, standard.packsize <dbl>,
## #   standard.latitude <dbl>, standard.longitude <dbl>, cav.binary <dbl>,
## #   cdv.binary <dbl>, cpv.binary <dbl>, chv.binary <dbl>, neo.binary <dbl>,
## #   toxo.binary <dbl>, and abbreviated variable name ¹​pack.size
```
…
